%YAML 1.1
%TAG !u! tag:unity3d.com,2011:
--- !u!114 &11400000
MonoBehaviour:
  m_ObjectHideFlags: 0
  m_CorrespondingSourceObject: {fileID: 0}
  m_PrefabInstance: {fileID: 0}
  m_PrefabAsset: {fileID: 0}
  m_GameObject: {fileID: 0}
  m_Enabled: 1
  m_EditorHideFlags: 0
  m_Script: {fileID: 11500000, guid: f8fefd9de8b7cd048ae2d079f0bf00da, type: 3}
  m_Name: UIViewSettings
  m_EditorClassIdentifier: 
  database: {fileID: 11400000, guid: 7024f349127f9514ca5edc4517607c65, type: 2}
  TargetOrientation: 2
  BehaviorAtStart: 0
  CustomStartAnchoredPosition: {x: 0, y: 0, z: 0}
  DeselectAnyButtonSelectedOnHide: 0
  DeselectAnyButtonSelectedOnShow: 0
  DisableCanvasWhenHidden: 1
  DisableGameObjectWhenHidden: 1
  DisableGraphicRaycasterWhenHidden: 1
  UseCustomStartAnchoredPosition: 1
  RenamePrefix: 'View - '
  RenameSuffix: 
